<svg width="24" height="24" xmlns="http://www.w3.org/2000/svg" fill-rule="evenodd" clip-rule="evenodd">
  <style type="text/css">
  	.st0{fill:#FFF;}
  </style>
  <path class="st0" d="M4 .755l14.374 11.245-14.374 11.219.619.781 15.381-12-15.391-12-.609.755z"/></svg>
